\relax 
\providecommand\zref@newlabel[2]{}
\providecommand\hyper@newdestlabel[2]{}
\@nameuse{bbl@beforestart}
\providecommand\HyperFirstAtBeginDocument{\AtBeginDocument}
\HyperFirstAtBeginDocument{\ifx\hyper@anchor\@undefined
\global\let\oldcontentsline\contentsline
\gdef\contentsline#1#2#3#4{\oldcontentsline{#1}{#2}{#3}}
\global\let\oldnewlabel\newlabel
\gdef\newlabel#1#2{\newlabelxx{#1}#2}
\gdef\newlabelxx#1#2#3#4#5#6{\oldnewlabel{#1}{{#2}{#3}}}
\AtEndDocument{\ifx\hyper@anchor\@undefined
\let\contentsline\oldcontentsline
\let\newlabel\oldnewlabel
\fi}
\fi}
\global\let\hyper@last\relax 
\gdef\HyperFirstAtBeginDocument#1{#1}
\providecommand\HyField@AuxAddToFields[1]{}
\providecommand\HyField@AuxAddToCoFields[2]{}
\babel@aux{english}{}
\zref@newlabel{mdf@pagelabel-1}{\default{0.1}\page{2}\abspage{2}\mdf@pagevalue{2}}
\newlabel{d}{{0.1}{2}{Introduction}{def.0.0.1}{}}
\pgfsyspdfmark {pgfid2}{10568990}{17003875}
\zref@newlabel{mdf@pagelabel-2}{\default{0.1}\page{3}\abspage{3}\mdf@pagevalue{3}}
\newlabel{t}{{0.1}{3}{Introduction}{exm.0.0.1}{}}
\pgfsyspdfmark {pgfid4}{7030046}{38254828}
\zref@newlabel{mdf@pagelabel-3}{\default{0.1}\page{3}\abspage{3}\mdf@pagevalue{3}}
\newlabel{f}{{0.1}{3}{Introduction}{note.0.0.1}{}}
\pgfsyspdfmark {pgfid6}{7030046}{29487382}
\zref@newlabel{mdf@pagelabel-4}{\default{0.2}\page{3}\abspage{3}\mdf@pagevalue{3}}
\newlabel{a}{{0.2}{3}{Introduction}{exm.0.0.2}{}}
\pgfsyspdfmark {pgfid8}{7030046}{7905772}
\zref@newlabel{mdf@pagelabel-5}{\default{0.2}\page{4}\abspage{4}\mdf@pagevalue{4}}
\pgfsyspdfmark {pgfid9}{10568990}{39576413}
\zref@newlabel{mdf@pagelabel-6}{\default{0.2}\page{6}\abspage{6}\mdf@pagevalue{6}}
\newlabel{s}{{0.2}{6}{Method, Material and Procedure}{note.0.0.2}{}}
\pgfsyspdfmark {pgfid11}{10568990}{36411160}
